{
  "name": "datamatrix.extra-support",
  "role": "datamatrix.support",
  "period": {
    "include": [
      {
        "from": "2021-01-01",
        "to": "2021-02-01"
      }
    ]
  },
  "workingTime": {
    "from": "00:00",
    "to": "23:59"
  },
  "rotation": {
    "every": 7,
    "type": "day"
  },
  "executors": [
    {
      "name": "sergey.boborykin",
      "unavailableAt": [
        {
          "from": "2021-11-10",
          "to": "2021-11-20"
        }
      ]
    },
    {
      "name": "ilya.glazkov",
      "unavailableAt": []
    },
    {
      "name": "anton.ehunov",
      "unavailableAt": []
    },
    {
      "name": "sergey.naumov",
      "unavailableAt": []
    }
  ],
  "priority": 1
}
